{
    "version": "https://jsonfeed.org/version/1",
    "title": "An American Seaman in The Netherlands",
    "description": "",
    "home_page_url": "https://paraplegicracehorse.gitlab.io/US-seaman-NL",
    "feed_url": "https://paraplegicracehorse.gitlab.io/US-seaman-NL/feed.json",
    "user_comment": "",
    "author": {
        "name": "Paraplegic Racehorse"
    },
    "items": [
        {
            "id": "https://paraplegicracehorse.gitlab.io/US-seaman-NL/in-the-beginning-there-was/index.html",
            "url": "https://paraplegicracehorse.gitlab.io/US-seaman-NL/in-the-beginning-there-was/index.html",
            "title": "In the beginning!",
            "summary": "In the beginning, there was a seaman. And then he met a&hellip;",
            "content_html": "<p>In the beginning, there was a seaman.</p>\n<p>And then he met a woman; a woman who would lead him on a maddening journey half-way 'round the world to very familiar yet alien land of Lilliput. Hmm. Yes, that more or less sums up the beginning.</p>\n<p>Who am I? What am I?</p>\n<p>I'm the Charles. I have spent the last seven years as a \"Tall Ship\" sailor, sort of. My job on the ships is in the machinery spaces. All the clouds of glorious canvas above deck are wonderful, but the people want/need the comforts of toilets, cooking stoves, electricity, drinking water, refrigeration, auxiliary propulsion engines, and all the comforts of home! That's where I come in. I maintain those systems. \"Engineer\"</p>\n<p>Before that, I owned a taxicab company in rural Alaska.</p>\n<p>I am giving up my mountains and wild places for a country whose land flat, meters below sea level, and all the forests are reality tree-farms.</p>\n<p>My odyssey began long before my arrival with the arrangement of a visa, but I'm going to fast-forward to arrival. Enjoy the journey.</p>",
            "author": {
                "name": "Paraplegic Racehorse"
            },
            "tags": [
            ],
            "date_published": "2019-04-18T15:36:23+02:00",
            "date_modified": "2019-04-18T18:49:54+02:00"
        }
    ]
}
